HUD joins
…
# Cleaning up presentation
coc_df_3 <- coc_df_3 %>%
  select(coc_number, coc_name, coc_category, coc_pop_2019, est_homeless_2019_scal, pit_count_from_2019, coc_pop_in_pov_2019, observed_unsheltered_homeless:total_additional_cost )

coc_df_3 %>% print

## # A tibble: 400 x 16
##    coc_number coc_name coc_category coc_pop_2019 est_homeless_20
##    <chr>      <chr>    <chr>               <dbl>            <dbl>
##  1 AK-500     Anchora Other Large       266776           0.450 
##  2 AK-501     Alaska  Largely Rur       407919           0.214 
##  3 AL-500     Birming Largely Sub       958459           0.127 
##  4 AL-501     Mobile  Other Large       605701           0.0986
##  5 AL-502     Florenc Largely Rur       265633           0.171 
##  6 AL-503     Huntsvi Other Large       569734           0.0930
##  7 AL-504     Montgom Other Large       383941           0.101 
##  8 AL-505     Gadsden Largely Rur           NA          NA     
##  9 AL-506     Tuscalo Other Large       206213           0.0237
## 10 AL-507     Alabama Largely Rur      1484631           0.0253
## #  with 390 more rows, and 11 more variables: pit_count_from_2019 <dbl>,
## #   coc_pop_in_pov_2019 <dbl>, observed_unsheltered_homeless <dbl>,
## #   estimated_total_unsheltered <dbl>, sheltered_homeless_individuals <dbl>,
## #   density_reduction_bed_need <dbl>, total_new_shelter_beds_required <int>,
## #   total_beds_required <dbl>, cost_of_new_capacity <dbl>,
## #   cost_of_quarantine_beds <dbl>, total_additional_cost <dbl>
…
# Write all data into CSV
write.csv(full_data, "output/all_covid_data.csv")

full_data %>% 
  print

## # A tibble: 3,305 x 44
##    coc_number coc_name coc_category coc_pop_2019 est_homeless_20
##    <chr>      <chr>    <chr>               <dbl>            <dbl>
##  1 AK-500     Anchora Other Large       266776            0.450
##  2 AK-501     Alaska  Largely Rur       407919            0.214
##  3 AK-501     Alaska  Largely Rur       407919            0.214
##  4 AK-501     Alaska  Largely Rur       407919            0.214
##  5 AK-501     Alaska  Largely Rur       407919            0.214
##  6 AK-501     Alaska  Largely Rur       407919            0.214
##  7 AK-501     Alaska  Largely Rur       407919            0.214
##  8 AK-501     Alaska  Largely Rur       407919            0.214
##  9 AK-501     Alaska  Largely Rur       407919            0.214
## 10 AK-501     Alaska  Largely Rur       407919            0.214
## #  with 3,295 more rows, and 39 more variables: pit_count_from_2019 <dbl>,
## #   coc_pop_in_pov_2019 <dbl>, observed_unsheltered_homeless <dbl>,
## #   estimated_total_unsheltered <dbl>, sheltered_homeless_individuals <dbl>,
## #   density_reduction_bed_need <dbl>, total_new_shelter_beds_required <int>,
## #   total_beds_required <dbl>, cost_of_new_capacity <dbl>,
## #   cost_of_quarantine_beds <dbl>, total_additional_cost <dbl>,
## #   county_fips <chr>, coc_name.y <chr>, coc_name_pit <chr>,
## #   in_2019_shapefile <chr>, in_2019_pit <chr>, n_cocs_in_county <dbl>,
## #   n_counties_in_coc <dbl>, mult_county_mult_coc <dbl>, rel_type <dbl>,
…
I also joined in data from the 2013-2017 American Community Survey for additional demographic information on the counties were examining.

# Pulled down from ESRI's USA Counties layer on ArcGIS
census_data <- read_csv("data/USA_Counties_census_data.csv") %>%
  rename (county_fips = FIPS) %>% 
  clean_names #from US Census data

full_with_census <- full_data %>%
  full_join(census_data, by="county_fips")

full_with_census %>% 
  print

## # A tibble: 3,305 x 102
##    coc_number coc_name coc_category coc_pop_2019 est_homeless_20
##    <chr>      <chr>    <chr>               <dbl>            <dbl>
##  1 AK-500     Anchora Other Large       266776            0.450
##  2 AK-501     Alaska  Largely Rur       407919            0.214
##  3 AK-501     Alaska  Largely Rur       407919            0.214
##  4 AK-501     Alaska  Largely Rur       407919            0.214
##  5 AK-501     Alaska  Largely Rur       407919            0.214
##  6 AK-501     Alaska  Largely Rur       407919            0.214
##  7 AK-501     Alaska  Largely Rur       407919            0.214
##  8 AK-501     Alaska  Largely Rur       407919            0.214
##  9 AK-501     Alaska  Largely Rur       407919            0.214
## 10 AK-501     Alaska  Largely Rur       407919            0.214
## #  with 3,295 more rows, and 97 more variables: pit_count_from_2019 <dbl>,
## #   coc_pop_in_pov_2019 <dbl>, observed_unsheltered_homeless <dbl>,
## #   estimated_total_unsheltered <dbl>, sheltered_homeless_individuals <dbl>,
## #   density_reduction_bed_need <dbl>, total_new_shelter_beds_required <int>,
## #   total_beds_required <dbl>, cost_of_new_capacity <dbl>,
## #   cost_of_quarantine_beds <dbl>, total_additional_cost <dbl>,
## #   county_fips <chr>, coc_name.y <chr>, coc_name_pit <chr>,
## #   in_2019_shapefile <chr>, in_2019_pit <chr>, n_cocs_in_county <dbl>,
## #   n_counties_in_coc <dbl>, mult_county_mult_coc <dbl>, rel_type <dbl>,
…
write.csv(all_edit_df, "output/Places to investigate.csv") 

all_edit_df %>% print

## # A tibble: 47 x 13
## # Groups:   coc_number [38]
##    county_fips state county coc_number coc_name coc_category est_coc_homeles
##    <chr>       <chr> <chr>  <chr>      <chr>    <chr>                   <dbl>
##  1 04013       Ariz Maric AZ-502     Phoenix Major City             0.188
##  2 04021       Ariz Pinal  AZ-502     Phoenix Major City             0.188
##  3 06007       Cali Butte  CA-519     Chico,  Largely Rur            0.680
##  4 06019       Cali Fresno CA-514     Fresno  Major City             0.277
##  5 06023       Cali Humbo CA-522     Humbold Largely Rur            1.68 
##  6 06025       Cali Imper CA-613     Imperia Largely Sub            1.00 
##  7 06029       Cali Kern   CA-604     Bakersf Other Large            0.194
##  8 06031       Cali Kings  CA-513     Visalia Other Large            0.220
##  9 06037       Cali Los A CA-600     Los Ang Major City             0.758
## 10 06037       Cali Los A CA-606     Long Be Major City             0.514
## #  with 37 more rows, and 6 more variables:
## #   primary_care_physicians_rate <dbl>, pct_in_poverty_in_cnty <dbl>,
## #   total_new_shelter_beds_required_in_coc <int>,
## #   upenn_additional_bed_capacity_needed_in_cnty <int>, county_pop_2018 <dbl>,
## #   coc_pop_2019 <dbl>
…
